{
	"variables": [],
	"info": {
		"name": "TeeSpring Engine",
		"_postman_id": "47411509-db37-4cbf-4328-10f5c7070804",
		"description": "https://github.com/MWWOnDemand/teespring_engine",
		"schema": "https://schema.getpostman.com/json/collection/v2.0.0/collection.json"
	},
	"item": [
		{
			"name": "POST Job",
			"request": {
				"url": "{{host}}/{{job}}",
				"method": "POST",
				"header": [
					{
						"key": "Content-Type",
						"value": "application/json",
						"description": ""
					},
					{
						"key": "Accept",
						"value": "application/json",
						"description": ""
					}
				],
				"body": {
					"mode": "raw",
					"raw": "{\n  \"job_id\": \"171\",\n  \"production_type\": \"dtg\",\n  \"procedure\": \"standard\",\n  \"closed\": false,\n  \"artwork_ready\": false,\n  \"cancelled\": false,\n  \"inventory_items\": [\n    {\n      \"sku\": \"PRT-GEN-AS506SC\",\n      \"quantity\": 1,\n      \"description\": \"Fake Product\",\n      \"layouts\": [\n        {\n          \"artwork_token\": \"999\",\n          \"mockup_token\": \"888\",\n          \"placement_token\": \"777\",\n          \"location\": \"front\"\n        }\n      ]\n    }\n  ],\n  \"artworks\": [\n    {\n      \"token\": \"999\",\n      \"pdf\": \"http://placehold.it/300/09f/fff.png\"\n    }\n  ],\n  \"placements\": [\n    {\n      \"token\": \"777\",\n      \"width\": 300,\n      \"height\": 300,\n      \"x_offset\": 0,\n      \"y_offset\": 50,\n      \"alignment_type\": \"string\"\n    }\n  ],\n  \"mockups\": [\n    {\n      \"token\": \"888\",\n      \"url\": \"http://placehold.it/350x150\"\n    }\n  ],\n  \"shipments\": [\n    {\n      \"shipper_reference\": \"111\",\n      \"inventory_items\": [\n        {\n          \"sku\": \"123456\",\n          \"quantity\": 1,\n          \"description\": \"Fake Product\"\n        }\n      ],\n      \"recipient\": {\n        \"full_name\": \"Bill Heaton\",\n        \"address_line1\": \"PO Box\",\n        \"address_line2\": \"\",\n        \"city\": \"Norco\",\n        \"province\": \"CA\",\n        \"country\": \"United States\",\n        \"country_code\": \"us\",\n        \"postal_code\": \"92860\",\n        \"phone_number\": \"7143491122\",\n        \"email_address\": \"pixelhandler@gmail.com\"\n      }\n    }\n  ]\n}"
				},
				"description": "https://ppapi-sandbox.herokuapp.com/fulfillment/docs#!/Job/post_teespring_v1_job"
			},
			"response": []
		},
		{
			"name": "PUT Job - artwork ready",
			"request": {
				"url": "{{host}}/{{job}}",
				"method": "PUT",
				"header": [
					{
						"key": "Content-Type",
						"value": "application/json",
						"description": ""
					},
					{
						"key": "Accept",
						"value": "application/json",
						"description": ""
					}
				],
				"body": {
					"mode": "raw",
					"raw": "{\n  \"job_id\": \"102\",\n  \"artwork_ready\": true,\n  \"artworks\": [\n    {\n      \"token\": \"999\",\n      \"pdf\": \"http://placehold.it/111/09f/fff.png\"\n    }\n  ]\n}"
				},
				"description": "https://ppapi-sandbox.herokuapp.com/fulfillment/docs#!/Job/put_teespring_v1_job"
			},
			"response": []
		},
		{
			"name": "PUT Job - close",
			"request": {
				"url": "{{host}}/{{job}}",
				"method": "PUT",
				"header": [
					{
						"key": "Content-Type",
						"value": "application/json",
						"description": ""
					},
					{
						"key": "Accept",
						"value": "application/json",
						"description": ""
					}
				],
				"body": {
					"mode": "raw",
					"raw": "{\n  \"job_id\": \"102\",\n  \"closed\": true,\n  \"close_date\": \"2017-04-22\",\n  \"sla_due_date\": \"2017-04-27\"\n}"
				},
				"description": "https://ppapi-sandbox.herokuapp.com/fulfillment/docs#!/Job/put_teespring_v1_job"
			},
			"response": []
		},
		{
			"name": "PUT Job - cancel",
			"request": {
				"url": "{{host}}/{{job}}",
				"method": "PUT",
				"header": [
					{
						"key": "Content-Type",
						"value": "application/json",
						"description": ""
					},
					{
						"key": "Accept",
						"value": "application/json",
						"description": ""
					}
				],
				"body": {
					"mode": "raw",
					"raw": "{\n  \"job_id\": \"102\",\n  \"closed\": true,\n  \"close_date\": \"2017-04-22\",\n  \"sla_due_date\": \"2017-04-27\"\n}"
				},
				"description": "https://ppapi-sandbox.herokuapp.com/fulfillment/docs#!/Job/put_teespring_v1_job"
			},
			"response": []
		}
	]
}